<?xml version="1.0" standalone="no"?>
<!DOCTYPE svg PUBLIC "-//W3C//DTD SVG 1.1//EN" "http://www.w3.org/Graphics/SVG/1.1/DTD/svg11.dtd" >
<svg xmlns="http://www.w3.org/2000/svg">
<metadata>Generated by IcoMoon</metadata>
<defs>
<font id="icomoon" horiz-adv-x="1024">
<font-face units-per-em="1024" ascent="960" descent="-64" />
<missing-glyph horiz-adv-x="1024" />
<glyph unicode="&#x20;" horiz-adv-x="512" d="" />
<glyph unicode="&#xe900;" glyph-name="person" d="M596.538 873.808c0-47.603-38.59-86.192-86.192-86.192s-86.192 38.59-86.192 86.192c0 47.603 38.59 86.192 86.192 86.192s86.192-38.59 86.192-86.192zM540.371 746.518c-21.476 4.36-44.827 4.169-65.921-0.803-143.297-16.791-189.826-182.654-176.688-309.122 5.699-54.676 91.891-55.25 86.135 0-4.781 46.089-2.735 115.643 21.763 165.079 0-60.088 0-120.176 0-180.245 0-2.123 0.21-4.112 0.306-6.158-0.057-0.975-0.287-1.798-0.287-2.792 0-143.029-0.249-286.001-6.158-428.915-2.62-63.53 95.888-63.282 98.489 0 4.628 112.010 5.795 224.077 6.062 336.163 4.666-0.306 9.333-0.306 13.999-0.038 0.287-112.086 1.415-224.154 6.005-336.125 2.62-63.282 101.128-63.53 98.489 0-5.909 142.914-6.12 285.886-6.12 428.915 0 4.437-0.593 8.472-1.492 12.354-0.134 62.096-2.505 124.249-1.779 186.307 29.336-49.665 32.014-125.416 26.927-174.507-5.775-55.211 80.436-54.657 86.135 0 13.444 129.088-35.322 299.254-185.867 309.887z" />
<glyph unicode="&#xe901;" glyph-name="bed" d="M971.154 496.686v252.393c0 34.585-28.138 62.722-62.722 62.722h-792.863c-34.585 0-62.722-28.138-62.722-62.722v-252.395c-29.878-4.546-52.846-30.405-52.846-61.534v-156.221c0-10.908 8.844-19.752 19.752-19.752h21.161v-97.444c0-10.908 8.844-19.752 19.752-19.752h35.657v-38.032c0-10.908 8.844-19.752 19.752-19.752s19.752 8.844 19.752 19.752v38.032h752.35v-38.032c0-10.908 8.841-19.752 19.752-19.752s19.752 8.844 19.752 19.752v38.032h35.657c10.911 0 19.752 8.844 19.752 19.752v97.444h21.158c10.911 0 19.752 8.844 19.752 19.752v156.221c0 31.129-22.968 56.991-52.846 61.537zM92.348 749.079c0 12.802 10.416 23.218 23.218 23.218h792.863c12.802 0 23.218-10.416 23.218-23.218v-251.684h-69.356c13.8 14.856 27.837 30.479 42.375 47.194 6.466 7.435 6.463 18.496-0.003 25.928-57.144 65.677-104.989 113.522-170.648 170.648-7.432 6.468-18.496 6.468-25.931 0-65.661-57.128-113.504-104.973-170.645-170.648-6.466-7.432-6.468-18.493-0.003-25.928 14.54-16.718 28.575-32.341 42.375-47.194h-135.639c13.8 14.856 27.84 30.479 42.378 47.194 6.466 7.435 6.466 18.496-0.003 25.928-57.136 65.667-104.981 113.511-170.648 170.648-7.432 6.468-18.496 6.468-25.931 0-65.667-57.136-113.511-104.981-170.648-170.648-6.468-7.432-6.468-18.493-0.003-25.928 14.54-16.716 28.577-32.338 42.378-47.194h-69.348v251.684zM634.314 497.395c-18.175 18.657-36.534 38.48-55.701 60.157 47.218 53.428 89.024 95.234 142.439 142.442 53.415-47.205 95.221-89.014 142.442-142.442-19.165-21.677-37.526-41.501-55.701-60.157h-173.479zM216.201 497.395c-18.175 18.659-36.536 38.48-55.704 60.157 47.21 53.418 89.024 95.232 142.442 142.442 53.418-47.21 95.232-89.024 142.442-142.442-19.165-21.677-37.526-41.498-55.704-60.157h-173.476zM943.585 181.485h-863.168v77.692h863.168v-77.692zM984.496 298.681h-944.992v136.469c0 12.539 10.203 22.741 22.744 22.741h899.504c12.541 0 22.744-10.203 22.744-22.741v-136.469z" />
<glyph unicode="&#xe902;" glyph-name="bicycle" d="M668.657 726.022c43.674-25.693 99.925-11.068 125.555 32.594 25.697 43.674 11.141 99.902-32.534 125.578-43.749 25.68-99.935 11.072-125.599-32.59-25.664-43.695-11.141-99.902 32.577-125.582zM818.557 410.030c-5.027 0-9.996-0.404-14.929-0.754l-30.051 149.111 9.792 3.659c22.211 8.303 33.512 33.044 25.193 55.267-8.317 22.242-33.206 33.494-55.249 25.176l-107.917-40.357-4.833 39.283c13.119 27.473 11.539 62.014-9.927 86.383-44.197 50.17-98.123 26.047-114.931 12.445l-222.543-180.293c-6.912-6.024-12.68-13.504-16.368-22.578-4.563-11.237-5.406-23.046-3.257-34.118-17.707-1.393-31.767-15.766-31.767-33.831 0-18.919 15.297-34.235 34.218-34.318l-14.154-33.123c-17.95 5.133-36.805 8.051-56.363 8.051-113.283-0.002-205.472-92.153-205.472-205.436 0-113.29 92.188-205.457 205.468-205.457 113.29 0 205.434 92.168 205.434 205.457 0 75.442-40.988 141.327-101.743 177.055l22.817 53.418h36.998l125.53-50.94-67.056-109.895c-17.278-28.346-8.317-65.35 20.022-82.641 9.769-5.956 20.57-8.807 31.236-8.807 20.26 0 40.053 10.264 51.388 28.816l61.096 100.154 39.716-23.971c-11.343-25.462-17.784-53.572-17.784-83.192 0-113.29 92.155-205.457 205.434-205.457 113.287 0 205.443 92.168 205.443 205.457 0 113.285-92.155 205.436-205.443 205.436zM205.468 50.67c-84.871 0-153.938 69.055-153.938 153.926s69.067 153.909 153.938 153.909c12.378 0 24.258-1.866 35.793-4.631l-42.64-99.733c-24.485-3.371-43.404-24.152-43.404-49.545 0-27.744 22.507-50.253 50.249-50.253 18.257 0 34.083 9.881 42.875 24.489h108.421c-12.34-72.597-75.244-128.162-151.294-128.162zM356.763 230.358h-108.421c-0.739 1.224-1.474 2.449-2.316 3.607l42.64 99.75c35.522-22.961 60.748-60.067 68.097-103.356zM618.021 355.736l15.964 26.163c9.196 15.062 11.31 33.398 5.777 50.153-5.541 16.755-18.154 30.226-34.489 36.867l-109.795 44.553 67.56 54.728 3.757-30.593c1.574-13.050 9.092-24.658 20.326-31.486 6.812-4.125 14.533-6.222 22.278-6.222 5.071 0 10.162 0.906 15.031 2.72l100.268 37.486 28.377-140.961c-38.042-12.832-71.046-36.463-95.475-67.291l-39.578 23.883zM781.73 256.908l-79.138 47.771c16.403 18.987 37.040 33.983 60.817 43.177l18.321-90.947zM818.557 50.67c-84.873 0-153.905 69.055-153.905 153.926 0 19.875 4.092 38.727 10.97 56.19l92.753-55.992c0-0.067-0.033-0.133-0.033-0.198 0-27.744 22.507-50.253 50.215-50.253 27.742 0 50.224 22.511 50.224 50.253 0 21.82-13.996 40.205-33.444 47.146l-21.401 106.293c1.574 0.050 3.047 0.471 4.623 0.471 84.873 0 153.913-69.038 153.913-153.909-0.002-84.871-69.042-153.926-153.915-153.926z" />
<glyph unicode="&#xe903;" glyph-name="couple" d="M371.526 859.71c0-52.676-42.702-95.378-95.378-95.378s-95.378 42.702-95.378 95.378c0 52.676 42.702 95.378 95.378 95.378s95.378-42.702 95.378-95.378zM1004.705 517.931c-55.468 39.974-102.625 109.744-138.912 174.231-13.706 24.336-39.427 39.427-67.37 39.427h-101.16c-27.911 0-53.68-15.091-67.37-39.427-31.615-56.177-71.477-116.331-117.894-157.353-46.417 41.005-86.294 101.16-117.894 157.353-13.706 24.336-39.443 39.427-67.354 39.427h-101.192c-27.911 0-53.664-15.091-67.354-39.427-36.27-64.487-83.444-134.257-138.896-174.231-45.772-32.952-1.723-109.631 44.564-76.244 45.74 32.936 87.357 70.156 123.225 112.353 0-255.34-20.809-444.92-21.211-570.415-0.177-56.982 88.13-56.918 88.324 0 0.338 110.888 6.893 221.502 17.024 331.858h9.873c10.147-110.372 16.685-220.986 17.040-331.858 0.193-56.918 88.501-56.982 88.308 0-0.403 125.496-21.211 315.076-21.211 570.415 35.883-42.181 77.484-79.401 123.225-112.353 14.994-10.775 32.485-10.501 47.093 0 45.74 32.936 87.357 70.156 123.225 112.353 0-255.34-20.825-444.92-21.211-570.415-0.177-56.982 88.146-56.918 88.34 0 0.322 110.888 6.861 221.502 17.008 331.858h9.873c10.147-110.372 16.685-220.986 17.024-331.858 0.209-56.918 88.501-56.982 88.324 0-0.387 125.496-21.211 315.076-21.211 570.415 35.883-42.181 77.484-79.401 123.225-112.353 46.272-33.387 90.305 43.276 44.548 76.244zM843.214 859.71c0-52.676-42.702-95.378-95.378-95.378s-95.378 42.702-95.378 95.378c0 52.676 42.702 95.378 95.378 95.378s95.378-42.702 95.378-95.378z" />
<glyph unicode="&#xe904;" glyph-name="group" d="M219.429 301.714c0 73.143 0 365.714 0 365.714s0.183 16.457 8.741 36.571c-76.032 0-155.026 0-155.026 0s-73.143 0-73.143-73.143v-256c0-73.143 73.143-73.143 73.143-73.143v-365.714h219.429v292.571c0 0-73.143 0-73.143 73.143zM219.429 740.571c19.017 0 36.608 5.266 52.187 13.751 2.158 1.317 4.571 2.487 6.875 3.767 30.391 19.493 50.651 53.394 50.651 92.197 0 60.599-49.115 109.714-109.714 109.714s-109.714-49.115-109.714-109.714 49.115-109.714 109.714-109.714zM950.857 704h-154.99c8.521-20.114 8.704-36.571 8.704-36.571s0-292.571 0-365.714-73.143-73.143-73.143-73.143v-292.571h219.429v365.714c0 0 73.143 0 73.143 73.143s0 256 0 256 0 73.143-73.143 73.143zM745.326 758.162c2.377-1.28 4.901-2.487 7.095-3.84 15.579-8.485 33.134-13.751 52.151-13.751 60.599 0 109.714 49.115 109.714 109.714s-49.115 109.714-109.714 109.714-109.714-49.115-109.714-109.714c0-38.729 20.187-72.594 50.469-92.123zM621.714 850.286c0-60.594-49.121-109.714-109.714-109.714s-109.714 49.121-109.714 109.714c0 60.594 49.121 109.714 109.714 109.714s109.714-49.121 109.714-109.714zM731.429 630.857c0 0 0 73.143-73.143 73.143-18.286 0-292.571 0-292.571 0s-73.143 0-73.143-73.143v-256c0-73.143 73.143-73.143 73.143-73.143v-365.714h292.571v365.714c0 0 73.143 0 73.143 73.143s0 256 0 256z" />
<glyph unicode="&#xe905;" glyph-name="no-smoking" d="M698.912 506.999v-100.108l57.107-57.104h27.635c19.035 0 34.401 15.366 34.401 34.401v88.296c0 19.036-15.366 34.401-34.401 34.401h-84.741v0.115zM306.971 506.999h-81.071c-19.035 0-34.401-15.366-34.401-34.401v-88.296c0-19.035 15.366-34.401 34.401-34.401h238.169l-157.097 157.097zM675.978 429.941v77.058h-77.057zM762.439 540.481c-3.325 25.227-18.578 74.994-86.921 87.608-67.082 12.384-85.657 57.908-90.704 82.218-1.147 5.16-8.027 6.307-10.665 1.605-13.76-24.654-34.744-77.517 8.717-115.472 54.238-47.473 125.333-25.113 170.399-61.119 3.9-3.211 9.747 0.115 9.174 5.16zM873.897 810.069c-47.015 47.015-101.711 83.938-162.716 109.739-63.183 26.603-130.265 40.134-199.295 40.134-69.031 0-136.113-13.531-199.296-40.249-61.004-25.801-115.702-62.724-162.716-109.739s-83.824-101.597-109.624-162.602c-26.719-63.183-40.25-130.265-40.25-199.296s13.531-136.113 40.249-199.295c25.801-61.005 62.724-115.702 109.739-162.716s101.712-83.939 162.716-109.74c63.184-26.717 130.15-40.249 199.296-40.249 69.147 0 136.113 13.532 199.297 40.249 61.003 25.801 115.699 62.725 162.714 109.74s83.939 101.711 109.74 162.716c26.717 63.183 40.249 130.15 40.249 199.295 0 69.146-13.532 136.113-40.249 199.296-26.031 61.004-62.839 115.702-109.854 162.716zM511.885 62.307c-103.088 0-199.984 40.134-272.799 112.95s-112.95 169.711-112.95 272.8c0 81.759 25.227 159.505 72.013 224.523l538.375-538.374c-65.134-46.672-142.881-71.899-224.639-71.899zM825.622 223.535l-538.259 538.258c65.018 46.785 142.878 72.013 224.523 72.013 103.089 0 199.985-40.134 272.8-112.95s112.95-169.711 112.95-272.799c0-81.758-25.227-159.505-72.014-224.522z" />
<glyph unicode="&#xe906;" glyph-name="spa" d="M666.777-8.487h-666.777v62.172c12.131-9.64 27.62-15.49 44.3-15.49h576.444l46.033-46.682zM288.547 904.487c-35.743 0-64.771-29.028-64.771-64.771 0-22.204 11.156-41.809 28.27-53.507 7.365 20.363 19.28 39.101 35.094 54.915s34.552 27.728 54.915 35.094c-11.698 17.112-31.303 28.27-53.507 28.27zM270.025 734.759c0-68.237 55.349-123.477 123.477-123.477 68.129 0 123.477 55.348 123.477 123.477 0 68.237-55.348 123.477-123.477 123.477-14.513 0-28.378-2.491-41.267-7.040-34.985-12.456-62.822-40.184-75.169-75.169-4.549-12.998-7.040-26.861-7.040-41.267zM202.979 564.383c-28.92-64.122-91.958-228-109.288-269.267h215.11c4.766 11.697 10.074 23.070 15.922 33.793 20.255 37.801 83.511 56.541 68.454 109.288-0.108 0.433-0.325 0.868-0.433 1.409l56.649-53.726c4.223-4.007 9.315-7.256 14.731-9.315l154.888-59.139c5.199-1.951 10.615-2.923 15.922-2.923 17.98 0 34.877 10.94 41.591 28.703 8.774 22.961-2.708 48.741-25.779 57.514l-136.908 52.315c-6.39 2.491-12.24 6.174-17.222 10.831 0 0-120.553 114.379-120.661 114.487-5.090 4.874-11.698 8.015-18.629 10.29-1.625 0.542-3.359 1.083-5.091 1.516-1.841 0.542-3.791 1.083-5.741 1.516-30.112 8.015-63.58 14.839-94.558 12.131-10.181-0.867-21.338-3.466-30.003-9.423-9.966-7.148-14.082-19.28-18.956-30.002zM44.3 65.274h587.708l56.323-57.080c5.307-5.416 11.698-9.64 18.522-12.456 6.715-2.708 13.865-4.224 21.231-4.224h240.022c31.194 0 56.323 25.562 55.891 56.756-0.542 30.654-26.105 54.914-56.756 54.914h-215.762l-146.656 148.823c-11.373 11.591-18.088 16.355-38.451 16.355-35.094 0-522.070-0.324-522.070-0.324-24.479 0-44.3-19.822-44.3-44.3v-114.163c0-24.478 19.821-44.3 44.3-44.3zM943.409 269.554c0 70.728-57.406 128.134-128.135 128.134s-128.135-57.406-128.135-128.134c0-70.73 57.406-128.136 128.135-128.136s128.135 57.299 128.135 128.136z" />
<glyph unicode="&#xe907;" glyph-name="swimmer" d="M895.74 358.594c-65.475-23.873-137.941 9.88-161.8 75.381-23.871 65.501 9.867 137.939 75.367 161.814 65.491 23.871 137.941-9.867 161.814-75.367 23.873-65.504-9.867-137.956-75.381-161.827v0zM175.080 306.802c15.74 13.777 39.493 34.572 91.003 34.572s75.247-20.795 90.974-34.56c10.513-9.221 13.67-11.991 31.979-11.991 18.321 0 21.48 2.77 31.964 11.977 15.74 13.777 39.493 34.572 91.001 34.572s75.234-20.795 90.976-34.56c10.484-9.221 13.67-11.991 31.977-11.991s21.494 2.77 31.964 11.977c8.832 7.715 20.405 17.555 37.758 24.786 0.377 23.564-6.775 53.633-28.806 85.663-11.546 16.777-110.961 155.954-110.961 155.954l121.367 95.758c19.249 15.189 22.542 43.094 7.353 62.33-15.202 19.249-43.082 22.502-62.33 7.353l-154.528-121.926c-18.576-14.651-22.38-41.294-8.669-60.569l87.64-123.153-336.45-81.78c-31.064-7.555-54.964-28.967-67.195-55.998 10.712 0.964 14.529 4.164 22.984 11.585v0zM957.128 256.247c11.896 10.391 20.445 17.932 46.71 17.932 11.157 0 20.163 9.006 20.163 20.163 0 11.13-9.006 20.163-20.163 20.163-41.399 0-59.078-15.483-73.272-27.932-12.366-10.809-21.291-18.617-49.666-18.617-28.404 0-37.328 7.808-49.696 18.642-14.194 12.436-31.842 27.905-73.27 27.905-41.401 0-59.078-15.47-73.272-27.905-12.366-10.834-21.292-18.642-49.681-18.642-28.402 0-37.313 7.808-49.681 18.642-14.208 12.436-31.871 27.905-73.272 27.905-41.414 0-59.078-15.47-73.285-27.905-12.339-10.834-21.279-18.642-49.681-18.642s-37.327 7.808-49.681 18.642c-14.208 12.436-31.871 27.905-73.272 27.905s-59.078-15.47-73.285-27.905c-12.339-10.834-21.265-18.642-49.681-18.642-28.402 0-37.328 7.808-49.681 18.642-14.235 12.422-31.898 27.905-73.299 27.905-11.128 0-20.161-9.033-20.161-20.163 0-11.157 9.033-20.163 20.163-20.163 26.239 0 34.827-7.528 46.696-17.932 14.572-12.757 32.705-28.619 76.255-28.619s61.685 15.862 76.255 28.619c11.882 10.403 20.472 17.932 46.711 17.932s34.827-7.528 46.696-17.932c14.572-12.757 32.703-28.619 76.255-28.619 43.55 0 61.685 15.862 76.255 28.619 11.882 10.403 20.459 17.932 46.71 17.932 26.239 0 34.802-7.528 46.696-17.932 14.572-12.757 32.705-28.619 76.257-28.619 43.537 0 61.685 15.862 76.255 28.619 11.896 10.403 20.445 17.932 46.711 17.932s34.841-7.528 46.723-17.932c14.556-12.757 32.691-28.619 76.257-28.619 43.54 0.002 61.674 15.85 76.231 28.62v0zM957.128 256.247c11.896 10.391 20.445 17.932 46.71 17.932 11.157 0 20.163 9.006 20.163 20.163 0 11.13-9.006 20.163-20.163 20.163-41.399 0-59.078-15.483-73.272-27.932-12.366-10.809-21.291-18.617-49.666-18.617-28.404 0-37.328 7.808-49.696 18.642-14.194 12.436-31.842 27.905-73.27 27.905-41.401 0-59.078-15.47-73.272-27.905-12.366-10.834-21.292-18.642-49.681-18.642-28.402 0-37.313 7.808-49.681 18.642-14.208 12.436-31.871 27.905-73.272 27.905-41.414 0-59.078-15.47-73.285-27.905-12.339-10.834-21.279-18.642-49.681-18.642s-37.327 7.808-49.681 18.642c-14.208 12.436-31.871 27.905-73.272 27.905s-59.078-15.47-73.285-27.905c-12.339-10.834-21.265-18.642-49.681-18.642-28.402 0-37.328 7.808-49.681 18.642-14.235 12.422-31.898 27.905-73.299 27.905-11.128 0-20.161-9.033-20.161-20.163 0-11.157 9.033-20.163 20.163-20.163 26.239 0 34.827-7.528 46.696-17.932 14.572-12.757 32.705-28.619 76.255-28.619s61.685 15.862 76.255 28.619c11.882 10.403 20.472 17.932 46.711 17.932s34.827-7.528 46.696-17.932c14.572-12.757 32.703-28.619 76.255-28.619 43.55 0 61.685 15.862 76.255 28.619 11.882 10.403 20.459 17.932 46.71 17.932 26.239 0 34.802-7.528 46.696-17.932 14.572-12.757 32.705-28.619 76.257-28.619 43.537 0 61.685 15.862 76.255 28.619 11.896 10.403 20.445 17.932 46.711 17.932s34.841-7.528 46.723-17.932c14.556-12.757 32.691-28.619 76.257-28.619 43.54 0.002 61.674 15.85 76.231 28.62v0zM957.128 176.43c11.896 10.416 20.445 17.918 46.71 17.918 11.157 0 20.163 9.033 20.163 20.163s-9.006 20.163-20.163 20.163c-41.399 0-59.078-15.444-73.272-27.892-12.339-10.82-21.264-18.63-49.666-18.63-28.404 0-37.328 7.808-49.696 18.63-14.194 12.447-31.871 27.892-73.27 27.892-41.401 0-59.078-15.444-73.272-27.892-12.366-10.82-21.292-18.63-49.681-18.63-28.402 0-37.313 7.808-49.681 18.63-14.208 12.447-31.871 27.892-73.272 27.892-41.414 0-59.078-15.444-73.285-27.892-12.339-10.82-21.279-18.63-49.681-18.63s-37.327 7.808-49.681 18.63c-14.208 12.447-31.871 27.892-73.272 27.892s-59.078-15.444-73.285-27.892c-12.339-10.82-21.265-18.63-49.681-18.63-28.402 0-37.328 7.808-49.681 18.63-14.208 12.447-31.871 27.892-73.272 27.892-11.13 0-20.163-9.033-20.163-20.163s9.033-20.163 20.163-20.163c26.239 0 34.829-7.502 46.698-17.905 14.572-12.757 32.703-28.619 76.255-28.619 43.55 0 61.685 15.862 76.242 28.619 11.896 10.403 20.486 17.905 46.723 17.905s34.827-7.502 46.698-17.905c14.572-12.757 32.703-28.619 76.255-28.619s61.685 15.862 76.243 28.619c11.896 10.403 20.472 17.905 46.723 17.905 26.239 0 34.802-7.502 46.711-17.905 14.556-12.757 32.689-28.619 76.242-28.619 43.539 0 61.685 15.862 76.257 28.619 11.894 10.403 20.445 17.905 46.71 17.905s34.842-7.502 46.723-17.905c14.572-12.757 32.691-28.619 76.257-28.619 43.512 0 61.645 15.86 76.203 28.605v0z" />
<glyph unicode="&#xe908;" glyph-name="television" d="M1006.933 857.6h-989.867c-9.438 0-17.067-7.629-17.067-17.067v-648.533c0-9.438 7.629-17.067 17.067-17.067h443.733v-51.2h-85.333v-85.333h273.067v85.333h-85.333v51.2h443.733c9.438 0 17.067 7.629 17.067 17.067v648.533c0 9.438-7.629 17.067-17.067 17.067zM614.4 89.6v-17.067h-204.8v17.067h85.333v85.333h34.133v-85.333h85.333zM989.867 209.067h-955.733v614.4h955.733v-614.4zM938.667 379.733h-215.484l-1.451 1.28c-6.025 5.325-12.459 9.745-19.2 13.227l-78.865 51.012-1.638 0.939c-5.973 2.987-12.595 4.369-18.432 5.598-1.86 0.375-4.284 0.905-6.263 1.417v22.221c0.768 0.512 1.57 1.075 2.389 1.638 11.554 7.953 16.964 11.93 20.224 16.521 11.827 16.742 23.671 34.765 31.232 54.118 16.401 7.509 31.505 22.016 31.505 40.431v38.315c0 7.049-2.765 13.926-8.192 20.412-4.045 4.847-8.875 12.698-8.875 22.528v17.988c-1.092 41.165-31.027 119.023-136.55 119.023s-135.458-77.858-136.533-119.467v-17.527c0-9.83-4.813-17.681-8.858-22.511-5.444-6.519-8.209-13.397-8.209-20.446v-38.315c0-16.452 13.534-28.109 23.091-34.816 11.366-34.406 45.773-59.989 62.242-70.622v-22.647c-4.454-4.335-18.074-10.803-24.166-13.705-3.755-1.792-7.066-3.379-9.899-4.932l-79.957-46.421c-6.758-3.686-13.261-8.465-19.319-14.165l-1.161-1.092h-87.364v-119.467h699.733v119.467zM443.477 411.665c1.997 1.092 4.727 2.389 7.817 3.857 19.439 9.25 43.639 20.753 43.639 41.779v45.141l-8.892 4.847c-13.431 7.322-49.698 32.461-56.132 60.535l-1.553 6.758-5.82 3.772c-10.547 6.81-12.527 10.308-12.937 9.779v36.54c0.068 0.068 0.154 0.171 0.273 0.341 10.82 12.954 16.794 28.74 16.794 44.39v17.084c0.085 3.499 3.396 85.777 102.4 85.777 96.529 0 102.093-77.073 102.4-85.333v-17.527c0-15.445 5.803-30.993 17.067-44.834l0.017-36.198c-0.563-2.423-7.475-8.704-15.855-11.264l-8.482-2.611-2.731-8.465c-5.786-17.971-17.545-35.942-28.553-51.644-1.758-1.741-8.806-6.588-12.578-9.199-7.236-4.983-10.53-7.305-12.902-9.984l-4.25-4.864v-42.342c0-22.613 22.545-27.341 33.382-29.611 3.465-0.717 7.356-1.536 9.557-2.441l55.979-36.215h-273.664l55.023 31.932zM904.533 294.4h-631.467v51.2h631.467v-51.2zM938.667 789.333h-102.4v-102.4h102.4v102.4zM904.533 721.067h-34.133v34.133h34.133v-34.133zM204.8 379.733h-119.467v-119.467h119.467v119.467zM170.667 294.4h-51.2v51.2h51.2v-51.2z" />
<glyph unicode="&#xe909;" glyph-name="three-users" d="M648.882 564.529c-0.046 0-255.277 0.091-273.445 0.091 0 0-0.114 0-0.137 0-23.244 0-42.186-19.26-42.117-42.504l0.911-263.291c0.091-23.176 18.896-42.413 42.004-42.413 0.046 0 0.114 0 0.159 0 13.068 0 24.724 6.534 32.396 15.959l16.597-256.256c1.457-22.903 20.49-40.114 43.461-40.114h86.603c22.948 0 41.935 17.462 43.438 40.342l16.551 256.711c7.695-9.972 19.328-16.642 32.442-16.642 0.046 0 0.068 0 0.159 0 23.13 0 41.913 19.579 42.072 42.596l0.842 262.813c0.068 23.039-18.714 42.709-41.935 42.709zM628.483 709.071c0-64.313-52.136-116.449-116.449-116.449s-116.449 52.136-116.449 116.449c0 64.313 52.136 116.449 116.449 116.449s116.449-52.136 116.449-116.449zM253.615 754.968c-0.023 0-200.547 0.068-214.799 0.068 0 0-0.091 0-0.114 0-18.236 0-33.125-15.14-33.079-33.398l0.706-206.831c0.068-18.213 14.844-33.33 33.011-33.33 0.023 0 0.091 0 0.114 0 10.268 0 19.442 5.122 25.453 12.521l13.045-201.276c1.161-17.963 16.096-31.486 34.149-31.486h68.048c18.008 0 32.92 13.705 34.127 31.668l12.977 201.686c6.056-7.809 15.185-13.091 25.498-13.091 0.023 0 0.046 0 0.114 0 18.167 0 32.92 15.413 33.034 33.466l0.683 206.489c0.023 18.054-14.73 33.512-32.965 33.512zM237.588 868.525c0-50.52-40.955-91.475-91.475-91.475s-91.475 40.955-91.475 91.475c0 50.52 40.955 91.475 91.475 91.475s91.475-40.955 91.475-91.475zM770.385 754.968c0.023 0 200.547 0.068 214.822 0.068h0.091c18.258 0 33.125-15.14 33.079-33.398l-0.683-206.831c-0.068-18.213-14.844-33.33-33.011-33.33-0.023 0-0.091 0-0.114 0-10.268 0-19.442 5.122-25.453 12.521l-13.022-201.276c-1.184-17.963-16.096-31.486-34.149-31.486h-68.071c-18.008 0-32.897 13.705-34.104 31.668l-12.977 201.686c-6.056-7.809-15.185-13.091-25.498-13.091-0.023 0-0.046 0-0.114 0-18.19 0-32.943 15.413-33.034 33.466l-0.66 206.489c-0.091 18.054 14.661 33.512 32.897 33.512zM969.384 868.525c0-50.52-40.955-91.475-91.475-91.475s-91.475 40.955-91.475 91.475c0 50.52 40.955 91.475 91.475 91.475s91.475-40.955 91.475-91.475z" />
<glyph unicode="&#xe90a;" glyph-name="weightlifting" d="M1008.352 540.208c-10.64 12.768-25.616 20.080-41.088 20.080h-23.264v18.784c0 33.744-29.312 61.216-65.328 61.216h-30.672v34.672c0 16.32-6.96 32.24-19.072 43.696-24.096 22.768-65.744 22.768-89.84 0-12.128-11.472-19.088-27.392-19.088-43.712v-162.672h-416v162.672c0 16.32-6.944 32.24-19.072 43.696-24.096 22.768-65.744 22.768-89.84 0-12.128-11.456-19.088-27.376-19.088-43.696v-34.672h-34.4c-16.176 0-31.472-5.84-43.088-16.448-11.76-10.8-18.512-25.872-18.512-41.328v-22.208h-23.040c-15.552 0-30.592-7.344-41.264-20.16-10.112-12.16-15.696-28.144-15.696-44.992v-93.696c0-16.848 5.584-32.832 15.712-44.992 10.672-12.816 25.712-20.16 41.248-20.16h23.040v-22.208c0-15.456 6.752-30.528 18.544-41.36 11.584-10.592 26.88-16.432 43.056-16.432h34.4v-34.672c0-16.32 6.96-32.24 19.072-43.68 12.048-11.376 28-17.648 44.928-17.648s32.88 6.272 44.928 17.648c12.128 11.456 19.072 27.376 19.072 43.68v162.672h416v-162.672c0-16.32 6.96-32.24 19.072-43.68 12.048-11.376 28-17.648 44.928-17.648s32.88 6.272 44.928 17.648c12.112 11.456 19.072 27.376 19.072 43.68v34.672h30.672c36.016 0 65.328 27.456 65.328 61.216v18.784h23.264c15.472 0 30.448 7.328 41.104 20.080 10.080 12.112 15.648 28.016 15.648 44.8v94.224c-0.016 16.784-5.568 32.704-15.664 44.816zM56.96 368.288c-6.096 0-12.016 3.072-16.656 8.64-5.28 6.32-8.304 15.264-8.304 24.512v93.696c0 9.248 3.024 18.176 8.304 24.512 4.64 5.568 10.56 8.64 16.656 8.64h23.040v-160h-23.040zM141.6 288.288c-8.048 0-15.872 2.928-21.424 8.016-5.28 4.848-8.176 11.152-8.176 17.776v268.416c0 6.624 2.896 12.944 8.144 17.76 5.6 5.104 13.408 8.032 21.456 8.032h34.4v-320h-34.4zM272 221.616c0-7.664-3.216-14.912-9.040-20.416-12-11.328-33.904-11.328-45.904 0-5.84 5.504-9.056 12.768-9.056 20.416v453.344c0 7.664 3.216 14.912 9.040 20.416 6 5.664 14.368 8.912 22.96 8.912s16.96-3.248 22.96-8.912c5.824-5.504 9.040-12.768 9.040-20.432v-453.328zM304 416.288v64h416v-64h-416zM816 221.616c0-7.664-3.216-14.912-9.040-20.416-12-11.328-33.904-11.328-45.904 0-5.84 5.504-9.056 12.768-9.056 20.416v453.328c0 7.664 3.216 14.912 9.040 20.416 6 5.664 14.368 8.912 22.96 8.912s16.96-3.248 22.96-8.912c5.824-5.488 9.040-12.752 9.040-20.416v-453.328zM912 317.504c0-16.112-14.944-29.216-33.328-29.216h-30.672v320h30.672c18.368 0 33.328-13.104 33.328-29.216v-261.568zM992 401.184c0-9.184-3.008-18.032-8.224-24.32-4.608-5.536-10.48-8.576-16.512-8.576h-23.264v160h23.264c6.032 0 11.904-3.040 16.512-8.576 5.232-6.272 8.224-15.136 8.224-24.32v-94.208z" />
<glyph unicode="&#xe90b;" glyph-name="wifi" d="M512 260.974c-51.619 0-93.512-41.893-93.512-93.512s41.894-93.512 93.512-93.512 93.512 41.893 93.512 93.512-41.894 93.512-93.512 93.512zM1013.037 587.924c-125.056 148.809-307.686 234.124-501.037 234.124s-375.951-85.315-501.039-234.124c-16.615-19.763-14.059-49.25 5.736-65.864 8.758-7.356 19.388-10.973 30.016-10.973 13.341 0 26.589 5.674 35.846 16.677 107.228 127.581 263.767 200.77 429.439 200.77s322.212-73.189 429.438-200.74c9.258-11.003 22.505-16.677 35.847-16.677 10.63 0 21.29 3.586 30.048 10.973 19.763 16.585 22.321 46.103 5.706 65.833zM512 635.024c-138.117 0-268.536-60.938-357.87-167.2-16.614-19.763-14.059-49.25 5.736-65.864 8.758-7.356 19.418-10.973 30.048-10.973 13.341 0 26.589 5.674 35.816 16.677 71.474 85.064 175.834 133.847 286.272 133.847s214.797-48.783 286.302-133.847c9.258-11.035 22.505-16.677 35.814-16.677 10.63 0 21.29 3.586 30.050 10.973 19.793 16.614 22.348 46.131 5.736 65.864-89.368 106.26-219.786 167.2-357.903 167.2zM512 448c-82.914 0-161.184-36.564-214.735-100.307-16.615-19.763-14.059-49.25 5.736-65.864 8.758-7.356 19.418-10.971 30.048-10.971 13.341 0 26.589 5.672 35.816 16.675 35.754 42.549 87.932 66.956 143.135 66.956s107.383-24.407 143.135-66.956c9.258-11.035 22.505-16.675 35.816-16.675 10.63 0 21.29 3.584 30.048 10.971 19.794 16.615 22.349 46.103 5.736 65.864-53.552 63.744-131.823 100.307-214.735 100.307z" />
<glyph unicode="&#xe90c;" glyph-name="air-conditioner" d="M972.799 806.4h-921.599c-29.014 0-51.199-22.186-51.199-51.199v-341.333c0-29.014 22.186-51.199 51.199-51.199h921.599c29.014 0 51.199 22.186 51.199 51.199v341.333c0.002 29.014-22.186 51.199-51.199 51.199zM989.866 413.867c0-10.24-6.826-17.066-17.066-17.066h-921.601c-10.24 0-17.066 6.826-17.066 17.066v341.333c0 10.24 8.534 17.066 17.066 17.066h921.599c10.24 0 17.066-6.826 17.066-17.066v-341.333zM443.732 652.8h136.534c10.24 0 17.066 6.826 17.066 17.066s-6.826 17.066-17.066 17.066h-136.534c-10.24 0-17.066-6.826-17.066-17.066s6.826-17.066 17.066-17.066zM938.665 465.067h-853.332c-10.24 0-17.066-6.826-17.066-17.066s6.826-17.066 17.066-17.066h853.332c10.24 0 17.066 6.826 17.066 17.066s-6.826 17.066-17.066 17.066zM938.665 533.334h-853.332c-10.24 0-17.066-6.826-17.066-17.066s6.826-17.066 17.066-17.066h853.332c10.24 0 17.066 6.826 17.066 17.066s-6.826 17.066-17.066 17.066zM520.533 241.494c-17.066 8.534-25.6 18.774-25.6 27.308s10.24 18.774 23.894 29.014c8.534 3.414 10.24 13.654 6.826 22.186-3.414 8.534-13.654 11.946-22.186 6.826-27.308-15.36-42.667-35.84-42.667-58.027s15.36-42.667 42.667-59.733c17.066-8.534 25.6-18.774 25.6-27.308s-10.24-18.774-25.6-27.306c-8.534-3.414-11.946-13.654-6.826-22.186 3.414-5.12 8.534-8.534 15.36-8.534 3.414 0 5.12 0 8.534 1.706 27.308 15.36 42.667 35.84 42.667 58.027s-15.362 44.373-42.669 58.027zM332.799 207.36c-17.066 8.534-25.6 18.774-25.6 27.308s10.24 18.774 23.894 29.014c8.534 3.414 11.946 13.654 6.826 22.186-3.414 8.534-13.654 11.946-22.186 6.826-27.308-15.36-42.667-35.84-42.667-58.027s15.36-42.667 42.667-59.733c17.066-8.534 25.6-18.774 25.6-27.308s-10.24-18.774-25.6-27.308c-8.534-3.414-11.946-13.654-6.826-22.186 3.414-5.12 8.534-8.534 15.36-8.534 3.414 0 5.12 0 8.534 1.706 27.308 15.36 42.667 35.84 42.667 58.027s-15.362 44.375-42.669 58.029zM708.266 207.36c-17.066 8.534-25.6 18.774-25.6 27.308s10.24 18.774 23.894 29.014c8.534 3.414 10.24 13.654 6.826 22.186-3.414 8.534-13.654 11.946-22.186 6.826-27.308-15.36-42.667-35.84-42.667-58.027s15.36-42.667 42.667-59.733c17.066-8.534 25.6-18.774 25.6-27.308s-10.24-18.774-25.6-27.308c-8.534-3.414-11.946-13.654-6.826-22.186 3.414-5.12 8.534-8.534 15.36-8.534 3.414 0 5.12 0 8.534 1.706 27.308 15.36 42.667 35.84 42.667 58.027s-15.364 44.375-42.669 58.029z" />
<glyph unicode="&#xe90d;" glyph-name="cocktail" d="M648.818 635.056h-34.204c-8.854 0-16.034-7.178-16.034-16.034s7.178-16.034 16.034-16.034h34.204c8.854 0 16.034 7.178 16.034 16.034s-7.178 16.034-16.034 16.034zM614.614 36.476h-239.432c-8.854 0-16.034-7.178-16.034-16.034 0-8.854 7.178-16.034 16.034-16.034h239.432c8.854 0 16.034 7.178 16.034 16.034s-7.18 16.034-16.034 16.034zM717.228 891.59c-97.742 0-178.202-75.358-186.362-171.022h-103.704l-31.542 197.132c-3.92 24.51-24.782 42.3-49.606 42.3h-210.264c-8.854 0-16.034-7.178-16.034-16.034 0-8.854 7.178-16.034 16.034-16.034h210.264c8.978 0 16.526-6.434 17.944-15.3l30.73-192.066h-105.018c-18.272 0-33.136-14.864-33.136-33.136v-68.41c0-0.274 0.006-0.548 0.022-0.82l32.542-634.536c1.37-26.726 23.408-47.664 50.17-47.664h311.26c26.766 0 48.802 20.938 50.172 47.664l27.392 534.136c98.106 5.648 176.192 87.236 176.192 186.734 0 103.144-83.912 187.056-187.056 187.056zM668.672-14.694c-0.494-9.666-8.464-17.24-18.146-17.24h-311.258c-9.68 0-17.652 7.572-18.148 17.242l-17.646 344.072c25.368 0.3 39.152 5.14 51.326 9.436 11.608 4.098 21.632 7.636 43.106 7.636 21.462 0 31.48-3.538 43.076-7.636 4.752-1.678 9.748-3.442 15.58-4.986l39.602-247.516c1.262-7.886 8.072-13.502 15.812-13.502 0.842 0 1.696 0.066 2.552 0.204 8.744 1.398 14.698 9.62 13.3 18.366l-38.084 238.028c1.616-0.038 3.28-0.060 4.998-0.060 26.976 0 41.226 5.028 53.796 9.466 11.612 4.098 21.64 7.636 43.124 7.636 21.502 0 31.538-3.54 43.16-7.638 12.204-4.304 26.028-9.152 51.494-9.436l-17.644-344.072zM687.962 361.428c-21.016 0.078-30.978 3.576-42.472 7.632-12.578 4.436-26.836 9.464-53.828 9.464-26.976 0-41.226-5.028-53.796-9.466-11.612-4.098-21.64-7.636-43.124-7.636-3.716 0-7.070 0.114-10.168 0.31l-8.734 54.596c-1.4 8.744-9.62 14.708-18.366 13.3-8.744-1.398-14.698-9.62-13.3-18.366l6.708-41.932c-12.378 4.368-26.572 9.192-52.976 9.192-26.968 0-41.212-5.030-53.78-9.466-11.456-4.044-21.392-7.538-42.296-7.628l-5.374 104.808c1.5-0.032 3.004-0.064 4.564-0.064 26.968 0 41.212 5.030 53.78 9.466 11.608 4.098 21.632 7.636 43.106 7.636 21.462 0 31.478-3.538 43.076-7.636 12.562-4.438 26.802-9.466 53.758-9.466 26.976 0 41.226 5.028 53.796 9.466 11.612 4.098 21.64 7.636 43.124 7.636 21.502 0 31.538-3.54 43.16-7.638 12.578-4.436 26.836-9.464 53.826-9.464 1.602 0 3.148 0.030 4.688 0.064l-5.372-104.808zM701.194 619.436l-6.208-121.070c-2.042-0.074-4.132-0.128-6.334-0.128-21.502 0-31.538 3.54-43.16 7.638-12.578 4.436-26.836 9.464-53.828 9.464-26.976 0-41.226-5.028-53.796-9.466-11.612-4.098-21.64-7.636-43.124-7.636-15.004 0-24.41 1.732-32.678 4.172l-16.094 100.578h100.23c8.854 0 16.034 7.178 16.034 16.034s-7.178 16.034-16.034 16.034h-105.358l-0.576 3.598c-1.4 8.744-9.622 14.7-18.366 13.3-8.252-1.318-14.012-8.718-13.458-16.894h-67.47c-8.854 0-16.034-7.178-16.034-16.034 0-8.854 7.178-16.034 16.034-16.034h72.524l14.442-90.272c-8.064 1.564-17.71 2.624-30.034 2.624-26.968 0-41.214-5.030-53.78-9.466-11.608-4.098-21.632-7.636-43.106-7.636-2.156 0-4.208 0.050-6.212 0.122l-6.21 121.074v67.996c0 0.59 0.478 1.068 1.068 1.068h410.456c0.59 0 1.068-0.478 1.068-1.068v-67.998zM729.746 550.094l3.494 68.108c0.012 0.274 0.022 0.548 0.022 0.82v46.804l41.040-41.040c3.13-3.13 7.234-4.696 11.336-4.696s8.208 1.564 11.336 4.696c6.262 6.262 6.262 16.414 0 22.674l-57.072 57.072 57.072 57.072c6.262 6.262 6.262 16.414 0 22.674-6.262 6.262-16.414 6.262-22.674 0l-57.072-57.072-57.072 57.074c-6.262 6.262-16.414 6.262-22.674 0-6.262-6.262-6.262-16.414 0-22.674l41.040-41.040h-115.454c8.048 77.956 74.112 138.956 154.162 138.956 85.462 0 154.99-69.528 154.99-154.99-0.002-81.24-62.85-148.038-142.474-154.438z" />
</font></defs></svg>